module 123L-it/123L-site-wasm

go 1.20

require golang.org/x/tools/gopls v0.12.4

require (
	github.com/BurntSushi/toml v1.2.1 // indirect
	github.com/google/go-cmp v0.5.9 // indirect
	github.com/realPy/hogosuru v1.4.0 // indirect
	github.com/sergi/go-diff v1.1.0 // indirect
	golang.org/x/exp v0.0.0-20220722155223-a9213eeb770e // indirect
	golang.org/x/exp/typeparams v0.0.0-20221212164502-fae10dda9338 // indirect
	golang.org/x/mod v0.11.0 // indirect
	golang.org/x/sync v0.3.0 // indirect
	golang.org/x/sys v0.9.0 // indirect
	golang.org/x/text v0.10.0 // indirect
	golang.org/x/tools v0.10.1-0.20230622221742-0622ad2359a7 // indirect
	golang.org/x/vuln v0.0.0-20230110180137-6ad3e3d07815 // indirect
	honnef.co/go/tools v0.4.2 // indirect
	mvdan.cc/gofumpt v0.4.0 // indirect
	mvdan.cc/xurls/v2 v2.4.0 // indirect
)
